[    0.000000] Linux version 4.15.0-126-generic (buildd@lcy01-amd64-024) (gcc version 7.5.0 (Ubuntu 7.5.0-3ubuntu1~18.04)) #129-Ubuntu SMP Mon Nov 23 18:53:38 UTC 2020 (Ubuntu 4.15.0-126.129-generic 4.15.18)
[    0.000000] Command line: BOOT_IMAGE=/boot/vmlinuz-4.15.0-126-generic root=LABEL=cloudimg-rootfs ro console=tty1 console=ttyS0
[    0.000000] KERNEL supported cpus:
[    0.000000]   Intel GenuineIntel
[    0.000000]   AMD AuthenticAMD
[    0.000000]   Centaur CentaurHauls
[    0.000000] x86/fpu: Supporting XSAVE feature 0x001: 'x87 floating point registers'
[    0.000000] x86/fpu: Supporting XSAVE feature 0x002: 'SSE registers'
[    0.000000] x86/fpu: Supporting XSAVE feature 0x004: 'AVX registers'
[    0.000000] x86/fpu: xstate_offset[2]:  576, xstate_sizes[2]:  256
[    0.000000] x86/fpu: Enabled xstate features 0x7, context size is 832 bytes, using 'standard' format.
[    0.000000] e820: BIOS-provided physical RAM map:
[    0.000000] BIOS-e820: [mem 0x0000000000000000-0x000000000009fbff] usable
[    0.000000] BIOS-e820: [mem 0x000000000009fc00-0x000000000009ffff] reserved
[    0.000000] BIOS-e820: [mem 0x00000000000f0000-0x00000000000fffff] reserved
[    0.000000] BIOS-e820: [mem 0x0000000000100000-0x000000003ffeffff] usable
[    0.000000] BIOS-e820: [mem 0x000000003fff0000-0x000000003fffffff] ACPI data
[    0.000000] BIOS-e820: [mem 0x00000000fec00000-0x00000000fec00fff] reserved
[    0.000000] BIOS-e820: [mem 0x00000000fee00000-0x00000000fee00fff] reserved
[    0.000000] BIOS-e820: [mem 0x00000000fffc0000-0x00000000ffffffff] reserved
[    0.000000] NX (Execute Disable) protection: active
[    0.000000] SMBIOS 2.5 present.
[    0.000000] DMI: innotek GmbH VirtualBox/VirtualBox, BIOS VirtualBox 12/01/2006
[    0.000000] Hypervisor detected: KVM
[    0.000000] e820: last_pfn = 0x3fff0 max_arch_pfn = 0x400000000
[    0.000000] MTRR: Disabled
[    0.000000] x86/PAT: MTRRs disabled, skipping PAT initialization too.
[    0.000000] CPU MTRRs all blank - virtualized system.
[    0.000000] x86/PAT: Configuration [0-7]: WB  WT  UC- UC  WB  WT  UC- UC  
[    0.000000] found SMP MP-table at [mem 0x0009fff0-0x0009ffff]
[    0.000000] Scanning 1 areas for low memory corruption
[    0.000000] RAMDISK: [mem 0x35a65000-0x36d29fff]
[    0.000000] ACPI: Early table checksum verification disabled
[    0.000000] ACPI: RSDP 0x00000000000E0000 000024 (v02 VBOX  )
[    0.000000] ACPI: XSDT 0x000000003FFF0030 00003C (v01 VBOX   VBOXXSDT 00000001 ASL  00000061)
[    0.000000] ACPI: FACP 0x000000003FFF00F0 0000F4 (v04 VBOX   VBOXFACP 00000001 ASL  00000061)
[    0.000000] ACPI: DSDT 0x000000003FFF0470 002325 (v02 VBOX   VBOXBIOS 00000002 INTL 20180105)
[    0.000000] ACPI: FACS 0x000000003FFF0200 000040
[    0.000000] ACPI: FACS 0x000000003FFF0200 000040
[    0.000000] ACPI: APIC 0x000000003FFF0240 00005C (v02 VBOX   VBOXAPIC 00000001 ASL  00000061)
[    0.000000] ACPI: SSDT 0x000000003FFF02A0 0001CC (v01 VBOX   VBOXCPUT 00000002 INTL 20180105)
[    0.000000] No NUMA configuration found
[    0.000000] Faking a node at [mem 0x0000000000000000-0x000000003ffeffff]
[    0.000000] NODE_DATA(0) allocated [mem 0x3ffc5000-0x3ffeffff]
[    0.000000] kvm-clock: cpu 0, msr 0:3ff44001, primary cpu clock
[    0.000000] kvm-clock: Using msrs 4b564d01 and 4b564d00
[    0.000000] kvm-clock: using sched offset of 8433506292 cycles
[    0.000000] clocksource: kvm-clock: mask: 0xffffffffffffffff max_cycles: 0x1cd42e4dffb, max_idle_ns: 881590591483 ns
[    0.000000] Zone ranges:
[    0.000000]   DMA      [mem 0x0000000000001000-0x0000000000ffffff]
[    0.000000]   DMA32    [mem 0x0000000001000000-0x000000003ffeffff]
[    0.000000]   Normal   empty
[    0.000000]   Device   empty
[    0.000000] Movable zone start for each node
[    0.000000] Early memory node ranges
[    0.000000]   node   0: [mem 0x0000000000001000-0x000000000009efff]
[    0.000000]   node   0: [mem 0x0000000000100000-0x000000003ffeffff]
[    0.000000] Reserved but unavailable: 98 pages
[    0.000000] Initmem setup node 0 [mem 0x0000000000001000-0x000000003ffeffff]
[    0.000000] ACPI: PM-Timer IO Port: 0x4008
[    0.000000] IOAPIC[0]: apic_id 2, version 32, address 0xfec00000, GSI 0-23
[    0.000000] ACPI: INT_SRC_OVR (bus 0 bus_irq 0 global_irq 2 dfl dfl)
[    0.000000] ACPI: INT_SRC_OVR (bus 0 bus_irq 9 global_irq 9 low level)
[    0.000000] Using ACPI (MADT) for SMP configuration information
[    0.000000] smpboot: Allowing 2 CPUs, 0 hotplug CPUs
[    0.000000] PM: Registered nosave memory: [mem 0x00000000-0x00000fff]
[    0.000000] PM: Registered nosave memory: [mem 0x0009f000-0x0009ffff]
[    0.000000] PM: Registered nosave memory: [mem 0x000a0000-0x000effff]
[    0.000000] PM: Registered nosave memory: [mem 0x000f0000-0x000fffff]
[    0.000000] e820: [mem 0x40000000-0xfebfffff] available for PCI devices
[    0.000000] Booting paravirtualized kernel on KVM
[    0.000000] clocksource: refined-jiffies: mask: 0xffffffff max_cycles: 0xffffffff, max_idle_ns: 7645519600211568 ns
[    0.000000] random: get_random_bytes called from start_kernel+0x99/0x500 with crng_init=0
[    0.000000] setup_percpu: NR_CPUS:8192 nr_cpumask_bits:2 nr_cpu_ids:2 nr_node_ids:1
[    0.000000] percpu: Embedded 45 pages/cpu s147456 r8192 d28672 u1048576
[    0.000000] PV qspinlock hash table entries: 256 (order: 0, 4096 bytes)
[    0.000000] Built 1 zonelists, mobility grouping on.  Total pages: 257913
[    0.000000] Policy zone: DMA32
[    0.000000] Kernel command line: BOOT_IMAGE=/boot/vmlinuz-4.15.0-126-generic root=LABEL=cloudimg-rootfs ro console=tty1 console=ttyS0
[    0.000000] Memory: 983016K/1048120K available (12300K kernel code, 2492K rwdata, 4264K rodata, 2440K init, 2724K bss, 65104K reserved, 0K cma-reserved)
[    0.000000] SLUB: HWalign=64, Order=0-3, MinObjects=0, CPUs=2, Nodes=1
[    0.000000] Kernel/User page tables isolation: enabled
[    0.000000] ftrace: allocating 39407 entries in 154 pages
[    0.004000] Hierarchical RCU implementation.
[    0.004000] 	RCU restricting CPUs from NR_CPUS=8192 to nr_cpu_ids=2.
[    0.004000] 	Tasks RCU enabled.
[    0.004000] RCU: Adjusting geometry for rcu_fanout_leaf=16, nr_cpu_ids=2
[    0.004000] NR_IRQS: 524544, nr_irqs: 440, preallocated irqs: 16
[    0.004000] Console: colour VGA+ 80x25
[    0.004000] console [tty1] enabled
[    0.004000] console [ttyS0] enabled
[    0.004000] ACPI: Core revision 20170831
[    0.004000] ACPI: 2 ACPI AML tables successfully acquired and loaded
[    0.004000] APIC: Switch to symmetric I/O mode setup
[    0.004000] x2apic enabled
[    0.004000] Switched APIC routing to physical x2apic.
[    0.004000] ..TIMER: vector=0x30 apic1=0 pin1=2 apic2=-1 pin2=-1
[    0.004005] tsc: Detected 2194.918 MHz processor
[    0.004896] Calibrating delay loop (skipped) preset value.. 4389.83 BogoMIPS (lpj=8779672)
[    0.008003] pid_max: default: 32768 minimum: 301
[    0.008881] Security Framework initialized
[    0.009647] Yama: becoming mindful.
[    0.010412] AppArmor: AppArmor initialized
[    0.012068] Dentry cache hash table entries: 131072 (order: 8, 1048576 bytes)
[    0.013858] Inode-cache hash table entries: 65536 (order: 7, 524288 bytes)
[    0.016047] Mount-cache hash table entries: 2048 (order: 2, 16384 bytes)
[    0.017956] Mountpoint-cache hash table entries: 2048 (order: 2, 16384 bytes)
[    0.020339] Last level iTLB entries: 4KB 64, 2MB 8, 4MB 8
[    0.021409] Last level dTLB entries: 4KB 64, 2MB 0, 4MB 0, 1GB 4
[    0.022582] Spectre V1 : Mitigation: usercopy/swapgs barriers and __user pointer sanitization
[    0.024004] Spectre V2 : Mitigation: Full generic retpoline
[    0.025113] Spectre V2 : Spectre v2 / SpectreRSB mitigation: Filling RSB on context switch
[    0.028017] Speculative Store Bypass: Vulnerable
[    0.030019] SRBDS: Unknown: Dependent on hypervisor status
[    0.032016] MDS: Mitigation: Clear CPU buffers
[    0.033580] Freeing SMP alternatives memory: 36K
[    0.145713] smpboot: CPU0: Intel(R) Core(TM) i5-5200U CPU @ 2.20GHz (family: 0x6, model: 0x3d, stepping: 0x4)
[    0.148157] Performance Events: unsupported p6 CPU model 61 no PMU driver, software events only.
[    0.150441] Hierarchical SRCU implementation.
[    0.152825] NMI watchdog: Perf event create on CPU 0 failed with -2
[    0.154320] NMI watchdog: Perf NMI watchdog permanently disabled
[    0.155611] smp: Bringing up secondary CPUs ...
[    0.156137] x86: Booting SMP configuration:
[    0.157056] .... node  #0, CPUs:      #1
[    0.004000] kvm-clock: cpu 1, msr 0:3ff44041, secondary cpu clock
[    0.162078] smp: Brought up 1 node, 2 CPUs
[    0.162078] smpboot: Max logical packages: 1
[    0.164033] smpboot: Total of 2 processors activated (8779.67 BogoMIPS)
[    0.168089] devtmpfs: initialized
[    0.168826] x86/mm: Memory block size: 128MB
[    0.169808] evm: security.selinux
[    0.170577] evm: security.SMACK64
[    0.171322] evm: security.SMACK64EXEC
[    0.172012] evm: security.SMACK64TRANSMUTE
[    0.172919] evm: security.SMACK64MMAP
[    0.173658] evm: security.apparmor
[    0.174328] evm: security.ima
[    0.174889] evm: security.capability
[    0.176527] clocksource: jiffies: mask: 0xffffffff max_cycles: 0xffffffff, max_idle_ns: 7645041785100000 ns
[    0.180092] futex hash table entries: 512 (order: 3, 32768 bytes)
[    0.184779] pinctrl core: initialized pinctrl subsystem
[    0.186270] RTC time:  3:38:34, date: 12/10/20
[    0.188264] NET: Registered protocol family 16
[    0.189593] audit: initializing netlink subsys (disabled)
[    0.190929] audit: type=2000 audit(1607571524.414:1): state=initialized audit_enabled=0 res=1
[    0.192073] cpuidle: using governor ladder
[    0.196036] cpuidle: using governor menu
[    0.200104] ACPI: bus type PCI registered
[    0.203789] acpiphp: ACPI Hot Plug PCI Controller Driver version: 0.5
[    0.204188] PCI: Using configuration type 1 for base access
[    0.213951] HugeTLB registered 2.00 MiB page size, pre-allocated 0 pages
[    0.216488] ACPI: Added _OSI(Module Device)
[    0.217615] ACPI: Added _OSI(Processor Device)
[    0.220020] ACPI: Added _OSI(3.0 _SCP Extensions)
[    0.221236] ACPI: Added _OSI(Processor Aggregator Device)
[    0.222492] ACPI: Added _OSI(Linux-Dell-Video)
[    0.224010] ACPI: Added _OSI(Linux-Lenovo-NV-HDMI-Audio)
[    0.225993] ACPI: Added _OSI(Linux-HPI-Hybrid-Graphics)
[    0.228588] ACPI: Executed 1 blocks of module-level executable AML code
[    0.238968] ACPI: Interpreter enabled
[    0.240028] ACPI: (supports S0 S5)
[    0.241035] ACPI: Using IOAPIC for interrupt routing
[    0.242706] PCI: Using host bridge windows from ACPI; if necessary, use "pci=nocrs" and report a bug
[    0.244295] ACPI: Enabled 2 GPEs in block 00 to 07
[    0.258614] ACPI: PCI Root Bridge [PCI0] (domain 0000 [bus 00-ff])
[    0.260020] acpi PNP0A03:00: _OSC: OS supports [ASPM ClockPM Segments MSI]
[    0.262914] acpi PNP0A03:00: _OSC: not requesting OS control; OS requires [ExtendedConfig ASPM ClockPM MSI]
[    0.264025] acpi PNP0A03:00: fail to add MMCONFIG information, can't access extended PCI configuration space under this bridge.
[    0.268723] PCI host bridge to bus 0000:00
[    0.269946] pci_bus 0000:00: root bus resource [io  0x0000-0x0cf7 window]
[    0.272006] pci_bus 0000:00: root bus resource [io  0x0d00-0xffff window]
[    0.273937] pci_bus 0000:00: root bus resource [mem 0x000a0000-0x000bffff window]
[    0.276015] pci_bus 0000:00: root bus resource [mem 0x40000000-0xfdffffff window]
[    0.280022] pci_bus 0000:00: root bus resource [bus 00-ff]
[    0.283937] pci 0000:00:01.1: legacy IDE quirk: reg 0x10: [io  0x01f0-0x01f7]
[    0.284009] pci 0000:00:01.1: legacy IDE quirk: reg 0x14: [io  0x03f6]
[    0.285614] pci 0000:00:01.1: legacy IDE quirk: reg 0x18: [io  0x0170-0x0177]
[    0.288008] pci 0000:00:01.1: legacy IDE quirk: reg 0x1c: [io  0x0376]
[    0.318349] pci 0000:00:07.0: quirk: [io  0x4000-0x403f] claimed by PIIX4 ACPI
[    0.319846] pci 0000:00:07.0: quirk: [io  0x4100-0x410f] claimed by PIIX4 SMB
[    0.337925] ACPI: PCI Interrupt Link [LNKA] (IRQs 5 9 10 *11)
[    0.339667] ACPI: PCI Interrupt Link [LNKB] (IRQs 5 9 *10 11)
[    0.340155] ACPI: PCI Interrupt Link [LNKC] (IRQs 5 *9 10 11)
[    0.341328] ACPI: PCI Interrupt Link [LNKD] (IRQs 5 9 10 *11)
[    0.344476] SCSI subsystem initialized
[    0.345276] pci 0000:00:02.0: vgaarb: setting as boot VGA device
[    0.345630] pci 0000:00:02.0: vgaarb: VGA device added: decodes=io+mem,owns=io+mem,locks=none
[    0.348035] pci 0000:00:02.0: vgaarb: bridge control possible
[    0.349359] vgaarb: loaded
[    0.352063] ACPI: bus type USB registered
[    0.352862] usbcore: registered new interface driver usbfs
[    0.353932] usbcore: registered new interface driver hub
[    0.354905] usbcore: registered new device driver usb
[    0.356105] EDAC MC: Ver: 3.0.0
[    0.356909] PCI: Using ACPI for IRQ routing
[    0.357094] NetLabel: Initializing
[    0.357873] NetLabel:  domain hash size = 128
[    0.360014] NetLabel:  protocols = UNLABELED CIPSOv4 CALIPSO
[    0.364035] NetLabel:  unlabeled traffic allowed by default
[    0.365334] clocksource: Switched to clocksource kvm-clock
[    0.380871] VFS: Disk quotas dquot_6.6.0
[    0.381643] VFS: Dquot-cache hash table entries: 512 (order 0, 4096 bytes)
[    0.382978] AppArmor: AppArmor Filesystem Enabled
[    0.384243] pnp: PnP ACPI init
[    0.385951] pnp: PnP ACPI: found 3 devices
[    0.397425] clocksource: acpi_pm: mask: 0xffffff max_cycles: 0xffffff, max_idle_ns: 2085701024 ns
[    0.399113] NET: Registered protocol family 2
[    0.400444] TCP established hash table entries: 8192 (order: 4, 65536 bytes)
[    0.401686] TCP bind hash table entries: 8192 (order: 5, 131072 bytes)
[    0.403605] TCP: Hash tables configured (established 8192 bind 8192)
[    0.405278] UDP hash table entries: 512 (order: 2, 16384 bytes)
[    0.406675] UDP-Lite hash table entries: 512 (order: 2, 16384 bytes)
[    0.408421] NET: Registered protocol family 1
[    0.410016] pci 0000:00:00.0: Limiting direct PCI/PCI transfers
[    0.412561] pci 0000:00:01.0: Activating ISA DMA hang workarounds
[    0.413616] pci 0000:00:02.0: Video device with shadowed ROM at [mem 0x000c0000-0x000dffff]
[    0.415364] Unpacking initramfs...
[    0.768494] Freeing initrd memory: 19220K
[    0.769368] clocksource: tsc: mask: 0xffffffffffffffff max_cycles: 0x1fa37202099, max_idle_ns: 440795206796 ns
[    0.771159] platform rtc_cmos: registered platform RTC device (no PNP device found)
[    0.772631] Scanning for low memory corruption every 60 seconds
[    0.774608] Initialise system trusted keyrings
[    0.776320] Key type blacklist registered
[    0.777357] workingset: timestamp_bits=36 max_order=18 bucket_order=0
[    0.779950] zbud: loaded
[    0.781231] squashfs: version 4.0 (2009/01/31) Phillip Lougher
[    0.782537] fuse init (API version 7.26)
[    0.785727] Key type asymmetric registered
[    0.786745] Asymmetric key parser 'x509' registered
[    0.787946] Block layer SCSI generic (bsg) driver version 0.4 loaded (major 246)
[    0.789537] io scheduler noop registered
[    0.790243] io scheduler deadline registered
[    0.791088] io scheduler cfq registered (default)
[    0.793628] ACPI: AC Adapter [AC] (off-line)
[    0.795970] input: Power Button as /devices/LNXSYSTM:00/LNXPWRBN:00/input/input0
[    0.797632] ACPI: Power Button [PWRF]
[    0.798448] input: Sleep Button as /devices/LNXSYSTM:00/LNXSLPBN:00/input/input1
[    0.799800] ACPI: Sleep Button [SLPF]
[    0.801686] ACPI: Battery Slot [BAT0] (battery present)
[    0.803339] Serial: 8250/16550 driver, 32 ports, IRQ sharing enabled
[    0.825856] 00:02: ttyS0 at I/O 0x3f8 (irq = 4, base_baud = 115200) is a 16550A
[    0.831630] Linux agpgart interface v0.103
[    0.834459] loop: module loaded
[    0.835830] scsi host0: ata_piix
[    0.836853] scsi host1: ata_piix
[    0.837593] ata1: PATA max UDMA/33 cmd 0x1f0 ctl 0x3f6 bmdma 0xd000 irq 14
[    0.838820] ata2: PATA max UDMA/33 cmd 0x170 ctl 0x376 bmdma 0xd008 irq 15
[    0.840249] libphy: Fixed MDIO Bus: probed
[    0.843715] tun: Universal TUN/TAP device driver, 1.6
[    0.845275] PPP generic driver version 2.4.2
[    0.846318] ehci_hcd: USB 2.0 'Enhanced' Host Controller (EHCI) Driver
[    0.849115] ehci-pci: EHCI PCI platform driver
[    0.850213] ehci-platform: EHCI generic platform driver
[    0.851539] ohci_hcd: USB 1.1 'Open' Host Controller (OHCI) Driver
[    0.852919] ohci-pci: OHCI PCI platform driver
[    0.853979] ohci-platform: OHCI generic platform driver
[    0.855036] uhci_hcd: USB Universal Host Controller Interface driver
[    0.856407] i8042: PNP: PS/2 Controller [PNP0303:PS2K,PNP0f03:PS2M] at 0x60,0x64 irq 1,12
[    0.859481] serio: i8042 KBD port at 0x60,0x64 irq 1
[    0.861594] serio: i8042 AUX port at 0x60,0x64 irq 12
[    0.863477] mousedev: PS/2 mouse device common for all mice
[    0.866244] input: AT Translated Set 2 keyboard as /devices/platform/i8042/serio0/input/input2
[    0.868837] rtc_cmos rtc_cmos: rtc core: registered rtc_cmos as rtc0
[    0.870010] rtc_cmos rtc_cmos: alarms up to one day, 114 bytes nvram
[    0.871569] i2c /dev entries driver
[    0.872360] device-mapper: uevent: version 1.0.3
[    0.873253] device-mapper: ioctl: 4.37.0-ioctl (2017-09-20) initialised: dm-devel@redhat.com
[    0.875738] ledtrig-cpu: registered to indicate activity on CPUs
[    0.878999] NET: Registered protocol family 10
[    0.889424] Segment Routing with IPv6
[    0.891832] NET: Registered protocol family 17
[    0.893369] Key type dns_resolver registered
[    0.895150] mce: Using 0 MCE banks
[    0.896065] RAS: Correctable Errors collector initialized.
[    0.897702] sched_clock: Marking stable (897630114, 0)->(1085133215, -187503101)
[    0.900489] registered taskstats version 1
[    0.901469] Loading compiled-in X.509 certificates
[    0.905963] Loaded X.509 cert 'Build time autogenerated kernel key: 24b6ce7d986f3307b9608c2edd0b61d009859433'
[    0.907810] zswap: loaded using pool lzo/zbud
[    0.916710] Key type big_key registered
[    0.917472] Key type trusted registered
[    0.920397] Key type encrypted registered
[    0.922483] AppArmor: AppArmor sha1 policy hashing enabled
[    0.924263] ima: No TPM chip found, activating TPM-bypass! (rc=-19)
[    0.926691] ima: Allocated hash algorithm: sha1
[    0.927772] evm: HMAC attrs: 0x1
[    0.929168]   Magic number: 0:684:613
[    0.929998]  isa: hash matches
[    0.930838] rtc_cmos rtc_cmos: setting system clock to 2020-12-10 03:38:35 UTC (1607571515)
[    0.932784] BIOS EDD facility v0.16 2004-Jun-25, 0 devices found
[    0.933968] EDD information not available.
[    1.029982] Freeing unused kernel image memory: 2440K
[    1.044154] Write protecting the kernel read-only data: 20480k
[    1.046950] Freeing unused kernel image memory: 2008K
[    1.048799] Freeing unused kernel image memory: 1880K
[    1.059193] x86/mm: Checked W+X mappings: passed, no W+X pages found.
[    1.062552] x86/mm: Checking user space page tables
[    1.071103] x86/mm: Checked W+X mappings: passed, no W+X pages found.
Loading, please wait...
starting version 237
[    1.174028] e1000: Intel(R) PRO/1000 Network Driver - version 7.3.21-k8-NAPI
[    1.177302] e1000: Copyright (c) 1999-2006 Intel Corporation.
[    1.189022] Fusion MPT base driver 3.04.20
[    1.190198] Copyright (c) 1999-2008 LSI Corporation
[    1.223884] AVX2 version of gcm_enc/dec engaged.
[    1.226257] AES CTR mode by8 optimization enabled
[    1.242802] Fusion MPT SPI Host driver 3.04.20
[    1.424847] input: ImExPS/2 Generic Explorer Mouse as /devices/platform/i8042/serio1/input/input4
[    1.614300] e1000 0000:00:03.0 eth0: (PCI:33MHz:32-bit) 02:2b:40:e2:86:51
[    1.615773] e1000 0000:00:03.0 eth0: Intel(R) PRO/1000 Network Connection
[    2.013764] e1000 0000:00:08.0 eth1: (PCI:33MHz:32-bit) 08:00:27:78:4e:a8
[    2.015004] e1000 0000:00:08.0 eth1: Intel(R) PRO/1000 Network Connection
[    2.017442] e1000 0000:00:03.0 enp0s3: renamed from eth0
[    2.019281] mptbase: ioc0: Initiating bringup
[    2.044913] e1000 0000:00:08.0 enp0s8: renamed from eth1
[    2.368354] ioc0: LSI53C1030 A0: Capabilities={Initiator}
[    4.799398] scsi host2: ioc0: LSI53C1030 A0, FwRev=00000000h, Ports=1, MaxQ=256, IRQ=20
[    8.161569] scsi 2:0:0:0: Direct-Access     VBOX     HARDDISK         1.0  PQ: 0 ANSI: 5
[    8.196168] scsi target2:0:0: Beginning Domain Validation
[    8.199797] scsi target2:0:0: Domain Validation skipping write tests
[    8.203251] scsi target2:0:0: Ending Domain Validation
[    8.204756] scsi target2:0:0: asynchronous
[    8.206050] scsi 2:0:1:0: Direct-Access     VBOX     HARDDISK         1.0  PQ: 0 ANSI: 5
[    8.236107] scsi target2:0:1: Beginning Domain Validation
[    8.240397] random: fast init done
[    8.244538] scsi target2:0:1: Domain Validation skipping write tests
[    8.247015] scsi target2:0:1: Ending Domain Validation
[    8.248550] scsi target2:0:1: asynchronous
[    8.253468] random: systemd-udevd: uninitialized urandom read (16 bytes read)
[    8.254860] sd 2:0:0:0: Attached scsi generic sg0 type 0
[    8.254902] random: systemd-udevd: uninitialized urandom read (16 bytes read)
[    8.259778] random: systemd-udevd: uninitialized urandom read (16 bytes read)
[    8.262663] sd 2:0:0:0: [sda] 20971520 512-byte logical blocks: (10.7 GB/10.0 GiB)
[    8.263402] sd 2:0:1:0: Attached scsi generic sg1 type 0
[    8.265915] sd 2:0:0:0: [sda] Write Protect is off
[    8.266908] sd 2:0:1:0: [sdb] 20480 512-byte logical blocks: (10.5 MB/10.0 MiB)
[    8.268562] sd 2:0:1:0: [sdb] Write Protect is off
[    8.270595] sd 2:0:0:0: [sda] Incomplete mode parameter data
[    8.271737] sd 2:0:0:0: [sda] Assuming drive cache: write through
[    8.273138] sd 2:0:1:0: [sdb] Incomplete mode parameter data
[    8.275724] sd 2:0:1:0: [sdb] Assuming drive cache: write through
[    8.313931]  sda: sda1
[    8.315779] sd 2:0:0:0: [sda] Attached SCSI disk
[    8.366200] sd 2:0:1:0: [sdb] Attached SCSI disk
Begin: Loading essential drivers ... [   10.320113] raid6: sse2x1   gen()  7015 MB/s
[   10.368105] raid6: sse2x1   xor()  5029 MB/s
[   10.416081] raid6: sse2x2   gen()  6671 MB/s
[   10.464083] raid6: sse2x2   xor()  6023 MB/s
[   10.512079] raid6: sse2x4   gen() 11234 MB/s
[   10.560217] raid6: sse2x4   xor()  6927 MB/s
[   10.608112] raid6: avx2x1   gen() 13963 MB/s
[   10.656086] raid6: avx2x1   xor()  9368 MB/s
[   10.704094] raid6: avx2x2   gen() 14177 MB/s
[   10.752101] raid6: avx2x2   xor()  7249 MB/s
[   10.800070] raid6: avx2x4   gen() 15116 MB/s
[   10.848142] raid6: avx2x4   xor()  9759 MB/s
[   10.849167] raid6: using algorithm avx2x4 gen() 15116 MB/s
[   10.850198] raid6: .... xor() 9759 MB/s, rmw enabled
[   10.851267] raid6: using avx2x2 recovery algorithm
[   10.854067] xor: automatically using best checksumming function   avx       
[   10.857833] async_tx: api initialized (async)
done.
Begin: Running /scripts/init-premount ... done.
Begin: Mounting root file system ... Begin: Running /scripts/local-top ... done.
Begin: Running /scripts/local-premount ... [   10.938608] Btrfs loaded, crc32c=crc32c-intel
Scanning for Btrfs filesystems
done.
Warning: fsck not present, so skipping root file system
[   11.363392] EXT4-fs (sda1): INFO: recovery required on readonly filesystem
[   11.366597] EXT4-fs (sda1): write access will be enabled during recovery
[   12.791526] random: crng init done
[   12.793389] random: 7 urandom warning(s) missed due to ratelimiting
[   13.485111] EXT4-fs (sda1): orphan cleanup on readonly fs
[   13.627314] EXT4-fs (sda1): 1 orphan inode deleted
[   13.628758] EXT4-fs (sda1): recovery complete
[   13.636251] EXT4-fs (sda1): mounted filesystem with ordered data mode. Opts: (null)
done.
Begin: Running /scripts/local-bottom ... done.
Begin: Running /scripts/init-bottom ... done.
[   16.439144] ip_tables: (C) 2000-2006 Netfilter Core Team
[   16.722234] systemd[1]: systemd 237 running in system mode. (+PAM +AUDIT +SELINUX +IMA +APPARMOR +SMACK +SYSVINIT +UTMP +LIBCRYPTSETUP +GCRYPT +GNUTLS +ACL +XZ +LZ4 +SECCOMP +BLKID +ELFUTILS +KMOD -IDN2 +IDN -PCRE2 default-hierarchy=hybrid)
[   16.728009] systemd[1]: Detected virtualization oracle.
[   16.729300] systemd[1]: Detected architecture x86-64.

Welcome to [1mUbuntu 18.04.5 LTS[0m!

[   16.775810] systemd[1]: Set hostname to <node2>.
[   22.991898] systemd[1]: Configuration file /lib/systemd/system/kubelet.service is marked world-inaccessible. This has no effect as configuration data is accessible via APIs without restrictions. Proceeding anyway.
[   23.156409] systemd[1]: Configuration file /etc/systemd/system/kubelet.service.d/10-kubeadm.conf is marked world-inaccessible. This has no effect as configuration data is accessible via APIs without restrictions. Proceeding anyway.
[   24.631691] systemd[1]: Started Forward Password Requests to Wall Directory Watch.
[[0;32m  OK  [0m] Started Forward Password Requests to Wall Directory Watch.
[   24.634702] systemd[1]: Reached target System Time Synchronized.
[[0;32m  OK  [0m] Reached target System Time Synchronized.
[   24.641878] systemd[1]: Created slice System Slice.
[[0;32m  OK  [0m] Created slice System Slice.
[   24.644598] systemd[1]: Listening on Journal Socket (/dev/log).
[[0;32m  OK  [0m] Listening on Journal Socket (/dev/log).
[   24.798303] systemd[1]: Listening on Network Service Netlink Socket.
[[0;32m  OK  [0m] Listening on Network Service Netlink Socket.
[   24.801985] systemd[1]: Listening on udev Kernel Socket.
[[0;32m  OK  [0m] Listening on udev Kernel Socket.
[   24.804601] systemd[1]: Listening on Syslog Socket.
[[0;32m  OK  [0m] Listening on Syslog Socket.
[   24.808331] systemd[1]: Listening on Journal Socket.
[[0;32m  OK  [0m] Listening on Journal Socket.
         Starting Remount Root and Kernel File Systems...
[[0;32m  OK  [0m] Listening on LVM2 metadata daemon socket.
         Starting Uncomplicated firewall...
[[0;32m  OK  [0m] Created slice User and Session Slice.
[[0;32m  OK  [0m] Reached target Slices.
[[0;32m  OK  [0m] Listening on LVM2 poll daemon socket.
[[0;32m  OK  [0m] Reached target User and Group Name Lookups.
[[0;32m  OK  [0m] Listening on Device-mapper event daemon FIFOs.
[[0;32m  OK  [0m] Created slice system-serial\x2dgetty.slice.
         Mounting POSIX Message Queue File System...
         Mounting Huge Pages File System...
         Starting Load Kernel Modules...
[[0;32m  OK  [0m] Set up automount Arbitrary Executab…rmats File System Automount Point.
         Starting Set the console keyboard layout...
         Starting Create list of required st…ce nodes for the current kernel...
[[0;32m  OK  [0m] Reached target Swap.
         Starting Monitoring of LVM2 mirrors…ng dmeventd or progress polling...
[[0;32m  OK  [0m] Listening on Journal Audit Socket.
         Starting Journal Service...
[[0;32m  OK  [0m] Listening on /dev/initctl Compatibility Named Pipe.
[[0;32m  OK  [0m] Listening on udev Control Socket.
         Starting udev Coldplug all Devices...
         Mounting Kernel Debug File System...
[[0;32m  OK  [0m] Started Uncomplicated firewall.
[[0;32m  OK  [0m] Mounted POSIX Message Queue File System.
[[0;32m  OK  [0m] Mounted Huge Pages File System.
[[0;32m  OK  [0m] Mounted Kernel Debug File System.
[[0;32m  OK  [0m] Started udev Coldplug all Devices.
[   25.419875] EXT4-fs (sda1): re-mounted. Opts: (null)
[[0;32m  OK  [0m] Started Remount Root and Kernel File Systems.
[   25.939248] Loading iSCSI transport class v2.0-870.
         Starting Load/Save Random Seed...
[[0;32m  OK  [0m] Started Create list of required sta…vice nodes for the current kernel.
         Starting Create Static Device Nodes in /dev...
[   27.064928] iscsi: registered transport (tcp)
[[0;32m  OK  [0m] Started Journal Service.
         Starting Flush Journal to Persistent Storage...
[[0;32m  OK  [0m] Started Load/Save Random Seed.
[   27.707687] systemd-journald[407]: Received request to flush runtime journal from PID 1
[   28.348197] iscsi: registered transport (iser)
[[0;32m  OK  [0m] Started Load Kernel Modules.
         Mounting FUSE Control File System...
         Mounting Kernel Configuration File System...
         Starting Apply Kernel Variables...
[[0;32m  OK  [0m] Mounted FUSE Control File System.
[[0;32m  OK  [0m] Mounted Kernel Configuration File System.
[[0;32m  OK  [0m] Started Set the console keyboard layout.
[[0;32m  OK  [0m] Started LVM2 metadata daemon.
[   29.786171] systemd-journald[407]: File /var/log/journal/cbd7f28e35a14483a6bea35cf8c6fcc6/system.journal corrupted or uncleanly shut down, renaming and replacing.
[[0;32m  OK  [0m] Started Monitoring of LVM2 mirrors,…sing dmeventd or progress polling.
[[0;32m  OK  [0m] Started Apply Kernel Variables.
[[0;32m  OK  [0m] Started Create Static Device Nodes in /dev.
         Starting udev Kernel Device Manager...
[[0;32m  OK  [0m] Reached target Local File Systems (Pre).
         Mounting /vagrant...
[[0;32m  OK  [0m] Reached target Local File Systems.
         Starting Set console font and keymap...
         Starting AppArmor initialization...
         Starting Tell Plymouth To Write Out Runtime Data...
         Starting ebtables ruleset management...
[[0;32m  OK  [0m] Started Set console font and keymap.
[[0;32m  OK  [0m] Started Tell Plymouth To Write Out Runtime Data.
[[0;32m  OK  [0m] Started Flush Journal to Persistent Storage.
         Starting Create Volatile Files and Directories...
[[0;32m  OK  [0m] Mounted /vagrant.
[[0;32m  OK  [0m] Started Create Volatile Files and Directories.
         Starting Update UTMP about System Boot/Shutdown...
[[0;32m  OK  [0m] Started udev Kernel Device Manager.
[[0;32m  OK  [0m] Started Dispatch Password Requests to Console Directory Watch.
[[0;32m  OK  [0m] Reached target Local Encrypted Volumes.
[[0;32m  OK  [0m] Started ebtables ruleset management.
[[0;32m  OK  [0m] Started Update UTMP about System Boot/Shutdown.
[[0;32m  OK  [0m] Found device /dev/ttyS0.
[[0;32m  OK  [0m] Listening on Load/Save RF Kill Switch Status /dev/rfkill Watch.
[[0;32m  OK  [0m] Started AppArmor initialization.
         Starting Initial cloud-init job (pre-networking)...
         Starting Load AppArmor profiles managed internally by snapd...
[[0;32m  OK  [0m] Started Load AppArmor profiles managed internally by snapd.
[   56.345165] cloud-init[557]: Cloud-init v. 20.3-2-g371b392c-0ubuntu1~18.04.1 running 'init-local' at Thu, 10 Dec 2020 03:39:29 +0000. Up 54.95 seconds.
[[0;32m  OK  [0m] Started Initial cloud-init job (pre-networking).
[[0;32m  OK  [0m] Reached target Network (Pre).
         Starting Network Service...
[[0;32m  OK  [0m] Started Network Service.
         Starting Network Name Resolution...
         Starting Wait for Network to be Configured...
[[0;32m  OK  [0m] Started Network Name Resolution.
[[0;32m  OK  [0m] Reached target Host and Network Name Lookups.
[[0;32m  OK  [0m] Reached target Network.
[[0;32m  OK  [0m] Started Wait for Network to be Configured.
         Starting Initial cloud-init job (metadata service crawler)...
[   59.475686] cloud-init[686]: Cloud-init v. 20.3-2-g371b392c-0ubuntu1~18.04.1 running 'init' at Thu, 10 Dec 2020 03:39:33 +0000. Up 59.17 seconds.
[   59.477970] cloud-init[686]: ci-info: ++++++++++++++++++++++++++++++++++++++Net device info+++++++++++++++++++++++++++++++++++++++
[   59.480387] cloud-init[686]: ci-info: +--------+------+-----------------------------+---------------+--------+-------------------+
[   59.492425] cloud-init[686]: ci-info: | Device |  Up  |           Address           |      Mask     | Scope  |     Hw-Address    |
[   59.494884] cloud-init[686]: ci-info: +--------+------+-----------------------------+---------------+--------+-------------------+
[   59.498434] cloud-init[686]: ci-info: | enp0s3 | True |          10.0.2.15          | 255.255.255.0 | global | 02:2b:40:e2:86:51 |
[   59.501772] cloud-init[686]: ci-info: | enp0s3 | True |  fe80::2b:40ff:fee2:8651/64 |       .       |  link  | 02:2b:40:e2:86:51 |
[   59.504226] cloud-init[686]: ci-info: | enp0s8 | True |        192.168.2.202        | 255.255.255.0 | global | 08:00:27:78:4e:a8 |
[   59.505783] cloud-init[686]: ci-info: | enp0s8 | True | fe80::a00:27ff:fe78:4ea8/64 |       .       |  link  | 08:00:27:78:4e:a8 |
[   59.507322] cloud-init[686]: ci-info: |   lo   | True |          127.0.0.1          |   255.0.0.0   |  host  |         .         |
[   59.509094] cloud-init[686]: ci-info: |   lo   | True |           ::1/128           |       .       |  host  |         .         |
[   59.510480] cloud-init[686]: ci-info: +--------+------+-----------------------------+---------------+--------+-------------------+
[   59.512096] cloud-init[686]: ci-info: ++++++++++++++++++++++++++++Route IPv4 info+++++++++++++++++++++++++++++
[   59.513884] cloud-init[686]: ci-info: +-------+-------------+----------+-----------------+-----------+-------+
[   59.515287] cloud-init[686]: ci-info: | Route | Destination | Gateway  |     Genmask     | Interface | Flags |
[   59.516797] cloud-init[686]: ci-info: +-------+-------------+----------+-----------------+-----------+-------+
[   59.528324] cloud-init[686]: ci-info: |   0   |   0.0.0.0   | 10.0.2.2 |     0.0.0.0     |   enp0s3  |   UG  |
[   59.532389] cloud-init[686]: ci-info: |   1   |   10.0.2.0  | 0.0.0.0  |  255.255.255.0  |   enp0s3  |   U   |
[   59.534971] cloud-init[686]: ci-info: |   2   |   10.0.2.2  | 0.0.0.0  | 255.255.255.255 |   enp0s3  |   UH  |
[   59.537222] cloud-init[686]: ci-info: |   3   | 192.168.2.0 | 0.0.0.0  |  255.255.255.0  |   enp0s8  |   U   |
[   59.538993] cloud-init[686]: ci-info: +-------+-------------+----------+-----------------+-----------+-------+
[   59.540090] cloud-init[686]: ci-info: +++++++++++++++++++Route IPv6 info+++++++++++++++++++
[   59.541346] cloud-init[686]: ci-info: +-------+-------------+---------+-----------+-------+
[   59.542474] cloud-init[686]: ci-info: | Route | Destination | Gateway | Interface | Flags |
[   59.543650] cloud-init[686]: ci-info: +-------+-------------+---------+-----------+-------+
[   59.545105] cloud-init[686]: ci-info: |   1   |  fe80::/64  |    ::   |   enp0s8  |   U   |
[   59.546837] cloud-init[686]: ci-info: |   2   |  fe80::/64  |    ::   |   enp0s3  |   U   |
[   59.548429] cloud-init[686]: ci-info: |   4   |    local    |    ::   |   enp0s3  |   U   |
[   59.549896] cloud-init[686]: ci-info: |   5   |    local    |    ::   |   enp0s8  |   U   |
[   59.551317] cloud-init[686]: ci-info: |   6   |   ff00::/8  |    ::   |   enp0s8  |   U   |
[   59.552772] cloud-init[686]: ci-info: |   7   |   ff00::/8  |    ::   |   enp0s3  |   U   |
[   59.554310] cloud-init[686]: ci-info: +-------+-------------+---------+-----------+-------+
[[0;32m  OK  [0m] Started Initial cloud-init job (metadata service crawler).
[[0;32m  OK  [0m] Reached target System Initialization.
         Starting Socket activation for snappy daemon.
[[0;32m  OK  [0m] Listening on D-Bus System Message Bus Socket.
[[0;32m  OK  [0m] Started Discard unused blocks once a week.
[[0;32m  OK  [0m] Started ACPI Events Check.
[[0;32m  OK  [0m] Reached target Paths.
         Starting LXD - unix socket.
[[0;32m  OK  [0m] Listening on Open-iSCSI iscsid Socket.
[[0;32m  OK  [0m] Started Message of the Day.
[[0;32m  OK  [0m] Started Daily apt download activities.
[[0;32m  OK  [0m] Started Daily apt upgrade and clean activities.
[[0;32m  OK  [0m] Listening on UUID daemon activation socket.
         Starting Docker Socket for the API.
[[0;32m  OK  [0m] Listening on ACPID Listen Socket.
[[0;32m  OK  [0m] Started Daily Cleanup of Temporary Directories.
[[0;32m  OK  [0m] Reached target Timers.
[[0;32m  OK  [0m] Reached target Cloud-config availability.
[[0;32m  OK  [0m] Reached target Network is Online.
         Starting Availability of block devices...
[[0;32m  OK  [0m] Reached target Remote File Systems (Pre).
[[0;32m  OK  [0m] Reached target Remote File Systems.
[[0;32m  OK  [0m] Listening on Socket activation for snappy daemon.
[[0;32m  OK  [0m] Listening on LXD - unix socket.
[[0;32m  OK  [0m] Listening on Docker Socket for the API.
[[0;32m  OK  [0m] Reached target Sockets.
[[0;32m  OK  [0m] Reached target Basic System.
         Starting Dispatcher daemon for systemd-networkd...
         Starting LSB: automatic crash report generation...
[[0;32m  OK  [0m] Started Regular background program processing daemon.
         Starting LSB: Record successful boot for GRUB...
         Starting LXD - container startup/shutdown...
         Starting System Logging Service...
[[0;32m  OK  [0m] Started kubelet: The Kubernetes Node Agent.
         Starting Login Service...
         Starting Permit User Sessions...
[[0;32m  OK  [0m] Started D-Bus System Message Bus.
[[0;32m  OK  [0m] Started Login Service.
[[0;32m  OK  [0m] Started Deferred execution scheduler.
         Starting Message of the Day...
         Starting Virtualbox guest utils...
         Starting containerd container runtime...
         Starting OpenBSD Secure Shell server...
         Starting Accounts Service...
[[0;32m  OK  [0m] Started Unattended Upgrades Shutdown.
[[0;32m  OK  [0m] Started irqbalance daemon.
[[0;32m  OK  [0m] Started FUSE filesystem for LXC.
         Starting Snap Daemon...
[[0;32m  OK  [0m] Started System Logging Service.
[[0;32m  OK  [0m] Started Availability of block devices.
[[0;32m  OK  [0m] Started Permit User Sessions.
         Starting Terminate Plymouth Boot Screen...
         Starting Hold until boot process finishes up...
[[0;32m  OK  [0m] Started Hold until boot process finishes up.
         Starting Set console scheme...
[[0;32m  OK  [0m] Started Serial Getty on ttyS0.
[[0;32m  OK  [0m] Started Terminate Plymouth Boot Screen.
[[0;32m  OK  [0m] Started Set console scheme.
[[0;32m  OK  [0m] Created slice system-getty.slice.
[[0;32m  OK  [0m] Started Getty on tty1.
[[0;32m  OK  [0m] Reached target Login Prompts.
[[0;32m  OK  [0m] Started Dispatcher daemon for systemd-networkd.
[[0;32m  OK  [0m] Started LSB: automatic crash report generation.
[[0;32m  OK  [0m] Started LSB: Record successful boot for GRUB.

Ubuntu 18.04.5 LTS node2 ttyS0

node2 login: [  101.027305] cloud-init[1468]: Cloud-init v. 20.3-2-g371b392c-0ubuntu1~18.04.1 running 'modules:config' at Thu, 10 Dec 2020 03:40:13 +0000. Up 99.07 seconds.
[  156.021060] cloud-init[2419]: Cloud-init v. 20.3-2-g371b392c-0ubuntu1~18.04.1 running 'modules:final' at Thu, 10 Dec 2020 03:41:09 +0000. Up 155.25 seconds.
[  156.090689] cloud-init[2419]: Cloud-init v. 20.3-2-g371b392c-0ubuntu1~18.04.1 finished at Thu, 10 Dec 2020 03:41:10 +0000. Datasource DataSourceNoCloud [seed=/dev/sdb][dsmode=net].  Up 156.01 seconds
[15996.187634] e1000 0000:00:08.0 enp0s8: Reset adapter
[33007.206876] e1000 0000:00:08.0 enp0s8: Reset adapter
04.1 finished at Thu, 10 Dec 2020 03:38:30 +0000. Datasource DataSourceNoCloud [seed=/dev/sdb][dsmode=net].  Up 74.36 seconds
[33084.958102] e1000 0000:00:08.0 enp0s8: Reset adapter
